bl\Application.class
io\spring\getter_inn_web_service\GetINNResponse.class
io\spring\getter_inn_web_service\GetINNRequest.class
io\spring\getter_inn_web_service\ObjectFactory.class
io\spring\getter_inn_web_service\package-info.class
bl\INNRepository.class
bl\domain\PassportDao.class
io\spring\getter_inn_web_service\Passport.class
bl\dao\PassportRepositoryDao.class
bl\config\WebServiceConfig.class
bl\INNEndpoint.class
io\spring\getter_inn_web_service\Gender.class
