io\spring\getter_taxes_web_service\package-info.class
io\spring\getter_taxes_web_service\GetTaxesRequest.class
bl\Application.class
bl\domain\AutoTaxDao.class
bl\domain\GroundTaxDao.class
bl\TaxesRepository.class
bl\dao\GroundTaxRepositoryDao.class
io\spring\getter_taxes_web_service\GroundTax.class
io\spring\getter_taxes_web_service\AutoTax.class
bl\TaxesEndpoint.class
io\spring\getter_taxes_web_service\GetTaxesResponse.class
bl\dao\AutoTaxRepositoryDao.class
bl\config\WebServiceConfig.class
io\spring\getter_taxes_web_service\ObjectFactory.class
